-- Merging decision tree log ---
manifest
ADDED from D:\2 DAM VIOD\ProgramacioDeDispositiusMobil(toni)\damn-snake\app\src\main\AndroidManifest.xml:1:1-32:12
	package
		ADDED from D:\2 DAM VIOD\ProgramacioDeDispositiusMobil(toni)\damn-snake\app\src\main\AndroidManifest.xml:2:5-47
		INJECTED from D:\2 DAM VIOD\ProgramacioDeDispositiusMobil(toni)\damn-snake\app\src\main\AndroidManifest.xml
		INJECTED from D:\2 DAM VIOD\ProgramacioDeDispositiusMobil(toni)\damn-snake\app\src\main\AndroidManifest.xml
	android:versionName
		ADDED from D:\2 DAM VIOD\ProgramacioDeDispositiusMobil(toni)\damn-snake\app\src\main\AndroidManifest.xml:4:5-30
		INJECTED from D:\2 DAM VIOD\ProgramacioDeDispositiusMobil(toni)\damn-snake\app\src\main\AndroidManifest.xml
		INJECTED from D:\2 DAM VIOD\ProgramacioDeDispositiusMobil(toni)\damn-snake\app\src\main\AndroidManifest.xml
	android:versionCode
		ADDED from D:\2 DAM VIOD\ProgramacioDeDispositiusMobil(toni)\damn-snake\app\src\main\AndroidManifest.xml:3:5-28
		INJECTED from D:\2 DAM VIOD\ProgramacioDeDispositiusMobil(toni)\damn-snake\app\src\main\AndroidManifest.xml
		INJECTED from D:\2 DAM VIOD\ProgramacioDeDispositiusMobil(toni)\damn-snake\app\src\main\AndroidManifest.xml
	xmlns:android
		ADDED from D:\2 DAM VIOD\ProgramacioDeDispositiusMobil(toni)\damn-snake\app\src\main\AndroidManifest.xml:1:11-69
	android:installLocation
		ADDED from D:\2 DAM VIOD\ProgramacioDeDispositiusMobil(toni)\damn-snake\app\src\main\AndroidManifest.xml:5:5-43
uses-sdk
ADDED from D:\2 DAM VIOD\ProgramacioDeDispositiusMobil(toni)\damn-snake\app\src\main\AndroidManifest.xml:9:5-11:41
	android:targetSdkVersion
		ADDED from D:\2 DAM VIOD\ProgramacioDeDispositiusMobil(toni)\damn-snake\app\src\main\AndroidManifest.xml:11:9-38
		INJECTED from D:\2 DAM VIOD\ProgramacioDeDispositiusMobil(toni)\damn-snake\app\src\main\AndroidManifest.xml
		INJECTED from D:\2 DAM VIOD\ProgramacioDeDispositiusMobil(toni)\damn-snake\app\src\main\AndroidManifest.xml
	android:minSdkVersion
		ADDED from D:\2 DAM VIOD\ProgramacioDeDispositiusMobil(toni)\damn-snake\app\src\main\AndroidManifest.xml:10:9-35
		INJECTED from D:\2 DAM VIOD\ProgramacioDeDispositiusMobil(toni)\damn-snake\app\src\main\AndroidManifest.xml
		INJECTED from D:\2 DAM VIOD\ProgramacioDeDispositiusMobil(toni)\damn-snake\app\src\main\AndroidManifest.xml
uses-permission#android.permission.WAKE_LOCK
ADDED from D:\2 DAM VIOD\ProgramacioDeDispositiusMobil(toni)\damn-snake\app\src\main\AndroidManifest.xml:13:5-68
	android:name
		ADDED from D:\2 DAM VIOD\ProgramacioDeDispositiusMobil(toni)\damn-snake\app\src\main\AndroidManifest.xml:13:22-65
uses-permission#android.permission.WRITE_EXTERNAL_STORAGE
ADDED from D:\2 DAM VIOD\ProgramacioDeDispositiusMobil(toni)\damn-snake\app\src\main\AndroidManifest.xml:14:5-80
	android:name
		ADDED from D:\2 DAM VIOD\ProgramacioDeDispositiusMobil(toni)\damn-snake\app\src\main\AndroidManifest.xml:14:22-78
application
ADDED from D:\2 DAM VIOD\ProgramacioDeDispositiusMobil(toni)\damn-snake\app\src\main\AndroidManifest.xml:16:5-30:19
	android:label
		ADDED from D:\2 DAM VIOD\ProgramacioDeDispositiusMobil(toni)\damn-snake\app\src\main\AndroidManifest.xml:18:9-36
	android:icon
		ADDED from D:\2 DAM VIOD\ProgramacioDeDispositiusMobil(toni)\damn-snake\app\src\main\AndroidManifest.xml:17:9-45
	android:theme
		ADDED from D:\2 DAM VIOD\ProgramacioDeDispositiusMobil(toni)\damn-snake\app\src\main\AndroidManifest.xml:19:9-40
activity#cat.escolapia.damviod.pmdm.snake.DamnSnake
ADDED from D:\2 DAM VIOD\ProgramacioDeDispositiusMobil(toni)\damn-snake\app\src\main\AndroidManifest.xml:20:9-29:20
	android:screenOrientation
		ADDED from D:\2 DAM VIOD\ProgramacioDeDispositiusMobil(toni)\damn-snake\app\src\main\AndroidManifest.xml:23:13-49
	android:label
		ADDED from D:\2 DAM VIOD\ProgramacioDeDispositiusMobil(toni)\damn-snake\app\src\main\AndroidManifest.xml:22:13-40
	android:configChanges
		ADDED from D:\2 DAM VIOD\ProgramacioDeDispositiusMobil(toni)\damn-snake\app\src\main\AndroidManifest.xml:24:13-72
	android:name
		ADDED from D:\2 DAM VIOD\ProgramacioDeDispositiusMobil(toni)\damn-snake\app\src\main\AndroidManifest.xml:21:13-70
intent-filter#android.intent.action.MAIN+android.intent.category.LAUNCHER
ADDED from D:\2 DAM VIOD\ProgramacioDeDispositiusMobil(toni)\damn-snake\app\src\main\AndroidManifest.xml:25:13-28:29
action#android.intent.action.MAIN
ADDED from D:\2 DAM VIOD\ProgramacioDeDispositiusMobil(toni)\damn-snake\app\src\main\AndroidManifest.xml:26:17-69
	android:name
		ADDED from D:\2 DAM VIOD\ProgramacioDeDispositiusMobil(toni)\damn-snake\app\src\main\AndroidManifest.xml:26:25-66
category#android.intent.category.LAUNCHER
ADDED from D:\2 DAM VIOD\ProgramacioDeDispositiusMobil(toni)\damn-snake\app\src\main\AndroidManifest.xml:27:17-77
	android:name
		ADDED from D:\2 DAM VIOD\ProgramacioDeDispositiusMobil(toni)\damn-snake\app\src\main\AndroidManifest.xml:27:27-74
